…
We could then compute the surprise for each of these states:

``` r
relevant_surprise <- results16 %>%
  filter(state %in% relevant_states) %>%
  group_by(state) %>%
  summarize(total_surprise = sum(surprise)) %>%
  arrange(-total_surprise)
relevant_surprise
```

    ## # A tibble: 25 x 2
    ##    state        total_surprise
    ##    <I<chr>>              <dbl>
    ##  1 Iowa                   9.83
    ##  2 Michigan               7.20
    ##  3 Nebraska               6.45
    ##  4 Wisconsin              6.36
    ##  5 Missouri               6.15
    ##  6 Ohio                   5.95
    ##  7 North Dakota           5.74
    ##  8 Kentucky               5.31
    ##  9 Indiana                4.84
    ## 10 South Dakota           4.31
    ## # ... with 15 more rows
…
Considering we are effectively looking at a 3-sided die (which would
have for a given state’s results), which has its entropy be maximized
for a “fair die” with entropy 1.5849625. There are 17 such states, but
only 12 were really surprising:

``` r
results16 %>%
  group_by(state) %>%
  summarize(sum = sum(surprise)) %>%
  filter(sum > log(3, base = 2)) %>%
  arrange(-sum)
```

    ## # A tibble: 36 x 2
    ##    state       sum
    ##    <I<chr>>  <dbl>
    ##  1 Oklahoma  23.2 
    ##  2 Utah      13.0 
    ##  3 Iowa       9.83
    ##  4 Minnesota  8.70
    ##  5 Idaho      8.55
    ##  6 Virginia   7.61
    ##  7 Illinois   7.44
    ##  8 Michigan   7.20
    ##  9 Nebraska   6.45
    ## 10 Wisconsin  6.36
    ## # ... with 26 more rows
…
``` r
prop_states %>%
  arrange(state,party,year) %>%
  group_by(state,party) %>%
  summarize(moving_prob = last(rollmean(probability, k = 4))) %>%
  group_by(state) %>%
  mutate(moving_prob = moving_prob/sum(moving_prob)) %>%
  ungroup()
```

    ## # A tibble: 153 x 3
    ##    state    party        moving_prob
    ##    <I<chr>> <fct>              <dbl>
    ##  1 Alabama  $third-party      0.0157
    ##  2 Alabama  democrat          0.371 
    ##  3 Alabama  republican        0.614 
    ##  4 Alaska   $third-party      0.0566
    ##  5 Alaska   democrat          0.377 
    ##  6 Alaska   republican        0.566 
    ##  7 Arizona  $third-party      0.0248
    ##  8 Arizona  democrat          0.448 
    ##  9 Arizona  republican        0.527 
    ## 10 Arkansas $third-party      0.0297
    ## # ... with 143 more rows
…
Some of these states (Michigan, Wisconsin) are critical to the 2016
election outcome.

``` r
johnson_2012 %>%
  group_by(state) %>%
  transmute(p = sum(candidatevotes)/totalvotes,
            p_other = 1 - p) %>%
  ungroup()
```

    ## # A tibble: 46 x 3
    ##    state                      p p_other
    ##    <I<chr>>               <dbl>   <dbl>
    ##  1 Alaska               0.0246    0.975
    ##  2 Arizona              0.0140    0.986
    ##  3 Arkansas             0.0152    0.985
    ##  4 California           0.0110    0.989
    ##  5 Colorado             0.0138    0.986
    ##  6 Connecticut          0.00792   0.992
    ##  7 Delaware             0.00938   0.991
    ##  8 District of Columbia 0.00709   0.993
    ##  9 Florida              0.00528   0.995
    ## 10 Georgia              0.0116    0.988
    ## # ... with 36 more rows
…
johnson_surprise
```

    ## # A tibble: 46 x 2
    ## # Groups:   state [45]
    ##    state         surprise
    ##    <I<chr>>         <dbl>
    ##  1 California       1.22 
    ##  2 Texas            0.703
    ##  3 Florida          0.619
    ##  4 Illinois         0.606
    ##  5 New York         0.500
    ##  6 New York         0.500
    ##  7 Washington       0.479
    ##  8 Massachusetts    0.445
    ##  9 Colorado         0.405
    ## 10 Virginia         0.323
    ## # ... with 36 more rows
…
stein_surprise
```

    ## # A tibble: 32 x 2
    ## # Groups:   state [32]
    ##    state      surprise
    ##    <I<chr>>      <dbl>
    ##  1 California    0.677
    ##  2 Florida       0.293
    ##  3 New York      0.180
    ##  4 Texas         0.148
    ##  5 Colorado      0.138
    ##  6 Arizona       0.133
    ##  7 Illinois      0.118
    ##  8 New Jersey    0.110
    ##  9 Hawaii        0.108
    ## 10 Washington    0.107
    ## # ... with 22 more rows
…
